[
    {
        "bm": "C958174",
        "bm_original": "C958.174",
        "kg": "G11",
        "kg_name": "AGGREGATE"
    },
    {
        "bm": "C958174",
        "bm_original": "C958.174",
        "kg": "SZT",
        "kg_name": "ZEITENSTUECKLISTEN"
    },
    {
        "bm": "C958174",
        "bm_original": "C958.174",
        "kg": "S00",
        "kg_name": "PRODUKTINFORMATIONEN"
    },
    {
        "bm": "C958174",
        "bm_original": "C958.174",
        "kg": "S23",
        "kg_name": "SONDEREINBAUTEN"
    },
    {
        "bm": "C958174",
        "bm_original": "C958.174",
        "kg": "S24",
        "kg_name": "MOTORAUFHAENGUNGIMFAHRGESTELL"
    },
    {
        "bm": "C958174",
        "bm_original": "C958.174",
        "kg": "S250",
        "kg_name": "KUPPLUNG"
    },
    {
        "bm": "C958174",
        "bm_original": "C958.174",
        "kg": "S260",
        "kg_name": "GETRIEBESCHALTUNG"
    },
    {
        "bm": "C958174",
        "bm_original": "C958.174",
        "kg": "S262",
        "kg_name": "GETRIEBE"
    },
    {
        "bm": "C958174",
        "bm_original": "C958.174",
        "kg": "S290",
        "kg_name": "PEDALANLAGE"
    },
    {
        "bm": "C958174",
        "bm_original": "C958.174",
        "kg": "S310",
        "kg_name": "RAHMEN"
    },
    {
        "bm": "C958174",
        "bm_original": "C958.174",
        "kg": "S311",
        "kg_name": "FAHRERHAUSLAGERUNG"
    },
    {
        "bm": "C958174",
        "bm_original": "C958.174",
        "kg": "S320",
        "kg_name": "FEDERUNGVORDERACHSE"
    },
    {
        "bm": "C958174",
        "bm_original": "C958.174",
        "kg": "S321",
        "kg_name": "FEDERUNGHINTERACHSE"
    },
    {
        "bm": "C958174",
        "bm_original": "C958.174",
        "kg": "S40",
        "kg_name": "RAEDERU.BEREIFUNG"
    },
    {
        "bm": "C958174",
        "bm_original": "C958.174",
        "kg": "S410",
        "kg_name": "GELENKWELLE"
    },
    {
        "bm": "C958174",
        "bm_original": "C958.174",
        "kg": "S411",
        "kg_name": "VONGETRIEBE..."
    },
    {
        "bm": "C958174",
        "bm_original": "C958.174",
        "kg": "S413",
        "kg_name": "VONGW-LAGER..."
    },
    {
        "bm": "C958174",
        "bm_original": "C958.174",
        "kg": "S414",
        "kg_name": "GELENKWELLEHA-1BISHA-2"
    },
    {
        "bm": "C958174",
        "bm_original": "C958.174",
        "kg": "S416",
        "kg_name": "BEF.ANRAHMEN"
    },
    {
        "bm": "C958174",
        "bm_original": "C958.174",
        "kg": "S417",
        "kg_name": "GW-FLANSCHVERBINDUNGEN"
    },
    {
        "bm": "C958174",
        "bm_original": "C958.174",
        "kg": "S419",
        "kg_name": "FERTIGUNGSHILFSMATERIAL"
    },
    {
        "bm": "C958174",
        "bm_original": "C958.174",
        "kg": "S420",
        "kg_name": "GERAETEUNDLEITUNGENVORMONTAG"
    },
    {
        "bm": "C958174",
        "bm_original": "C958.174",
        "kg": "S421",
        "kg_name": "GERAETEUNDLEITUNGENANBAUANRAHMEN"
    },
    {
        "bm": "C958174",
        "bm_original": "C958.174",
        "kg": "S422",
        "kg_name": "DRUCKLUFTLEITUNGEN/BREMSSCHLEUCHEANSCHLUSSTEILE"
    },
    {
        "bm": "C958174",
        "bm_original": "C958.174",
        "kg": "S423",
        "kg_name": "STEUERVENTILE"
    },
    {
        "bm": "C958174",
        "bm_original": "C958.174",
        "kg": "S424",
        "kg_name": "LEITUNGENVONMOTOR"
    },
    {
        "bm": "C958174",
        "bm_original": "C958.174",
        "kg": "S425",
        "kg_name": "PA-LEITUNGSSATZ"
    },
    {
        "bm": "C958174",
        "bm_original": "C958.174",
        "kg": "S429",
        "kg_name": "FUNKTIONSSCHEMABREMSE"
    },
    {
        "bm": "C958174",
        "bm_original": "C958.174",
        "kg": "S461",
        "kg_name": "LENKUNGUNGSTEILEFAHRGESTELL"
    },
    {
        "bm": "C958174",
        "bm_original": "C958.174",
        "kg": "S470",
        "kg_name": "KRAFTSTOFFANLAGE"
    },
    {
        "bm": "C958174",
        "bm_original": "C958.174",
        "kg": "S475",
        "kg_name": "PA-LEITUNGSSATZ"
    },
    {
        "bm": "C958174",
        "bm_original": "C958.174",
        "kg": "S476",
        "kg_name": "ZUSATZGERAETE"
    },
    {
        "bm": "C958174",
        "bm_original": "C958.174",
        "kg": "S49",
        "kg_name": "AUSPUFFANLAGE"
    },
    {
        "bm": "C958174",
        "bm_original": "C958.174",
        "kg": "S50",
        "kg_name": "KUEHLER"
    },
    {
        "bm": "C958174",
        "bm_original": "C958.174",
        "kg": "S520",
        "kg_name": "LUFTANSAUGUNG"
    },
    {
        "bm": "C958174",
        "bm_original": "C958.174",
        "kg": "S521",
        "kg_name": "GERAEUSCHDAEMMUNG"
    },
    {
        "bm": "C958174",
        "bm_original": "C958.174",
        "kg": "S523",
        "kg_name": "KOTFLUEGELBZW.HALTERUNG"
    },
    {
        "bm": "C958174",
        "bm_original": "C958.174",
        "kg": "S524",
        "kg_name": "SCHLUSSLEUCHTENHALTERUNG/SEITENLEUCHTEN"
    },
    {
        "bm": "C958174",
        "bm_original": "C958.174",
        "kg": "S525",
        "kg_name": "UNTERFAHRSCHUTZ/SEITENVERKLEIDUNG"
    },
    {
        "bm": "C958174",
        "bm_original": "C958.174",
        "kg": "S528",
        "kg_name": "LANGZEITOELFILTER"
    },
    {
        "bm": "C958174",
        "bm_original": "C958.174",
        "kg": "S540",
        "kg_name": "LEITUNGSSATZ"
    },
    {
        "bm": "C958174",
        "bm_original": "C958.174",
        "kg": "S541",
        "kg_name": "STROMVERSORGUNG"
    },
    {
        "bm": "C958174",
        "bm_original": "C958.174",
        "kg": "S545",
        "kg_name": "ELEKTR.AUSRUESTUNGRAHMEN"
    },
    {
        "bm": "C958174",
        "bm_original": "C958.174",
        "kg": "S546",
        "kg_name": "LEITUNGSSATZBRUESTUNG"
    },
    {
        "bm": "C958174",
        "bm_original": "C958.174",
        "kg": "S547",
        "kg_name": "LEITUNGSSATZMOTOR"
    },
    {
        "bm": "C958174",
        "bm_original": "C958.174",
        "kg": "S548",
        "kg_name": "LEITUNGSSATZFAHRGESTELL"
    },
    {
        "bm": "C958174",
        "bm_original": "C958.174",
        "kg": "S550",
        "kg_name": "SONDEREINBAUTEN"
    },
    {
        "bm": "C958174",
        "bm_original": "C958.174",
        "kg": "S58",
        "kg_name": "WERKZEUGU.ZUBEHOER"
    },
    {
        "bm": "C958174",
        "bm_original": "C958.174",
        "kg": "S660",
        "kg_name": "EINSTIEG"
    },
    {
        "bm": "C958174",
        "bm_original": "C958.174",
        "kg": "S680",
        "kg_name": "ISOLIERUNG(AUSSEN)"
    },
    {
        "bm": "C958174",
        "bm_original": "C958.174",
        "kg": "S880",
        "kg_name": "STOSSFAENGER"
    },
    {
        "bm": "C958174",
        "bm_original": "C958.174",
        "kg": "S881",
        "kg_name": "KOTFLUEGEL"
    },
    {
        "bm": "C958174",
        "bm_original": "C958.174",
        "kg": "S882",
        "kg_name": "ABDECKUNG,ECKBEPLANKUNG,KUEHLVERKLEIDUNG"
    },
    {
        "bm": "C958174",
        "bm_original": "C958.174",
        "kg": "CAA",
        "kg_name": "ACHSEN"
    },
    {
        "bm": "C958174",
        "bm_original": "C958.174",
        "kg": "CBB",
        "kg_name": "BREMSEN"
    },
    {
        "bm": "C958174",
        "bm_original": "C958.174",
        "kg": "CCC",
        "kg_name": "CHASSIS/RAHMEN"
    },
    {
        "bm": "C958174",
        "bm_original": "C958.174",
        "kg": "CEE",
        "kg_name": "ELEKTRIK/RADIO"
    },
    {
        "bm": "C958174",
        "bm_original": "C958.174",
        "kg": "CFF",
        "kg_name": "FAHRERHAUS"
    },
    {
        "bm": "C958174",
        "bm_original": "C958.174",
        "kg": "CGG",
        "kg_name": "GETRIEBE"
    },
    {
        "bm": "C958174",
        "bm_original": "C958.174",
        "kg": "CHH",
        "kg_name": "HEIZUNG/KLIMAANLAGE/LUEFTUNG"
    },
    {
        "bm": "C958174",
        "bm_original": "C958.174",
        "kg": "CII",
        "kg_name": "FZG-EIGENSCHAFTEN/BM-BESCHREIBENDECODE"
    },
    {
        "bm": "C958174",
        "bm_original": "C958.174",
        "kg": "CJJ",
        "kg_name": "INSTRUMENTIERUNG"
    },
    {
        "bm": "C958174",
        "bm_original": "C958.174",
        "kg": "CKK",
        "kg_name": "KRAFTSTOFFTANK/ABGASANLAGE"
    },
    {
        "bm": "C958174",
        "bm_original": "C958.174",
        "kg": "CLL",
        "kg_name": "SCHEINWERFER/BELEUCHTUNG"
    },
    {
        "bm": "C958174",
        "bm_original": "C958.174",
        "kg": "CMM",
        "kg_name": "MOTOR"
    },
    {
        "bm": "C958174",
        "bm_original": "C958.174",
        "kg": "CNN",
        "kg_name": "NEBENANTRIEB/NEBENABTRIEB"
    },
    {
        "bm": "C958174",
        "bm_original": "C958.174",
        "kg": "CPP",
        "kg_name": "PRITSCHE/SCHMUTZFAENGER"
    },
    {
        "bm": "C958174",
        "bm_original": "C958.174",
        "kg": "CQQ",
        "kg_name": "QUERTRAEGER/ANHAENGERKUPPLUNG"
    },
    {
        "bm": "C958174",
        "bm_original": "C958.174",
        "kg": "CRR",
        "kg_name": "RAEDER/BEREIFUNG"
    },
    {
        "bm": "C958174",
        "bm_original": "C958.174",
        "kg": "CSF",
        "kg_name": "FAHRERHAUS-AUSSTATTUNG"
    },
    {
        "bm": "C958174",
        "bm_original": "C958.174",
        "kg": "CSS",
        "kg_name": "SITZ"
    },
    {
        "bm": "C958174",
        "bm_original": "C958.174",
        "kg": "CTT",
        "kg_name": "TUEREN"
    },
    {
        "bm": "C958174",
        "bm_original": "C958.174",
        "kg": "CXX",
        "kg_name": "SONSTIGES"
    },
    {
        "bm": "C958174",
        "bm_original": "C958.174",
        "kg": "CYY",
        "kg_name": "ZUBEHOER/WERKZEUG"
    },
    {
        "bm": "C958174",
        "bm_original": "C958.174",
        "kg": "CZZ",
        "kg_name": "SAMMELCODE"
    }
]