[
    {
        "bm": "AGGREGATE",
        "kg": "G11"
    },
    {
        "bm": "ZEITENSTUECKLISTEN",
        "kg": "SZT"
    },
    {
        "bm": "PRODUKTINFORMATIONEN",
        "kg": "S00"
    },
    {
        "bm": "SONDEREINBAUTEN",
        "kg": "S23"
    },
    {
        "bm": "MOTORAUFHAENGUNGIMFAHRGESTELL",
        "kg": "S24"
    },
    {
        "bm": "KUPPLUNG",
        "kg": "S250"
    },
    {
        "bm": "GETRIEBESCHALTUNG",
        "kg": "S260"
    },
    {
        "bm": "GETRIEBE",
        "kg": "S262"
    },
    {
        "bm": "PEDALANLAGE",
        "kg": "S290"
    },
    {
        "bm": "RAHMEN",
        "kg": "S310"
    },
    {
        "bm": "FAHRERHAUSLAGERUNG",
        "kg": "S311"
    },
    {
        "bm": "FEDERUNGVORDERACHSE",
        "kg": "S320"
    },
    {
        "bm": "FEDERUNGHINTERACHSE",
        "kg": "S321"
    },
    {
        "bm": "RAEDERU.BEREIFUNG",
        "kg": "S40"
    },
    {
        "bm": "GELENKWELLE",
        "kg": "S410"
    },
    {
        "bm": "VONGETRIEBE...",
        "kg": "S411"
    },
    {
        "bm": "VONGW-LAGER...",
        "kg": "S413"
    },
    {
        "bm": "GELENKWELLEHA-1BISHA-2",
        "kg": "S414"
    },
    {
        "bm": "BEF.ANRAHMEN",
        "kg": "S416"
    },
    {
        "bm": "GW-FLANSCHVERBINDUNGEN",
        "kg": "S417"
    },
    {
        "bm": "FERTIGUNGSHILFSMATERIAL",
        "kg": "S419"
    },
    {
        "bm": "GERAETEUNDLEITUNGENVORMONTAG",
        "kg": "S420"
    },
    {
        "bm": "GERAETEUNDLEITUNGENANBAUANRAHMEN",
        "kg": "S421"
    },
    {
        "bm": "DRUCKLUFTLEITUNGEN/BREMSSCHLEUCHEANSCHLUSSTEILE",
        "kg": "S422"
    },
    {
        "bm": "STEUERVENTILE",
        "kg": "S423"
    },
    {
        "bm": "LEITUNGENVONMOTOR",
        "kg": "S424"
    },
    {
        "bm": "PA-LEITUNGSSATZ",
        "kg": "S425"
    },
    {
        "bm": "FUNKTIONSSCHEMABREMSE",
        "kg": "S429"
    },
    {
        "bm": "LENKUNGUNGSTEILEFAHRGESTELL",
        "kg": "S461"
    },
    {
        "bm": "KRAFTSTOFFANLAGE",
        "kg": "S470"
    },
    {
        "bm": "PA-LEITUNGSSATZ",
        "kg": "S475"
    },
    {
        "bm": "ZUSATZGERAETE",
        "kg": "S476"
    },
    {
        "bm": "AUSPUFFANLAGE",
        "kg": "S49"
    },
    {
        "bm": "KUEHLER",
        "kg": "S50"
    },
    {
        "bm": "LUFTANSAUGUNG",
        "kg": "S520"
    },
    {
        "bm": "GERAEUSCHDAEMMUNG",
        "kg": "S521"
    },
    {
        "bm": "KOTFLUEGELBZW.HALTERUNG",
        "kg": "S523"
    },
    {
        "bm": "SCHLUSSLEUCHTENHALTERUNG/SEITENLEUCHTEN",
        "kg": "S524"
    },
    {
        "bm": "UNTERFAHRSCHUTZ/SEITENVERKLEIDUNG",
        "kg": "S525"
    },
    {
        "bm": "LANGZEITOELFILTER",
        "kg": "S528"
    },
    {
        "bm": "LEITUNGSSATZ",
        "kg": "S540"
    },
    {
        "bm": "STROMVERSORGUNG",
        "kg": "S541"
    },
    {
        "bm": "ELEKTR.AUSRUESTUNGRAHMEN",
        "kg": "S545"
    },
    {
        "bm": "LEITUNGSSATZBRUESTUNG",
        "kg": "S546"
    },
    {
        "bm": "LEITUNGSSATZMOTOR",
        "kg": "S547"
    },
    {
        "bm": "LEITUNGSSATZFAHRGESTELL",
        "kg": "S548"
    },
    {
        "bm": "SONDEREINBAUTEN",
        "kg": "S550"
    },
    {
        "bm": "WERKZEUGU.ZUBEHOER",
        "kg": "S58"
    },
    {
        "bm": "EINSTIEG",
        "kg": "S660"
    },
    {
        "bm": "ISOLIERUNG(AUSSEN)",
        "kg": "S680"
    },
    {
        "bm": "STOSSFAENGER",
        "kg": "S880"
    },
    {
        "bm": "KOTFLUEGEL",
        "kg": "S881"
    },
    {
        "bm": "ABDECKUNG,ECKBEPLANKUNG,KUEHLVERKLEIDUNG",
        "kg": "S882"
    },
    {
        "bm": "ACHSEN",
        "kg": "CAA"
    },
    {
        "bm": "BREMSEN",
        "kg": "CBB"
    },
    {
        "bm": "CHASSIS/RAHMEN",
        "kg": "CCC"
    },
    {
        "bm": "ELEKTRIK/RADIO",
        "kg": "CEE"
    },
    {
        "bm": "FAHRERHAUS",
        "kg": "CFF"
    },
    {
        "bm": "GETRIEBE",
        "kg": "CGG"
    },
    {
        "bm": "HEIZUNG/KLIMAANLAGE/LUEFTUNG",
        "kg": "CHH"
    },
    {
        "bm": "FZG-EIGENSCHAFTEN/BM-BESCHREIBENDECODE",
        "kg": "CII"
    },
    {
        "bm": "INSTRUMENTIERUNG",
        "kg": "CJJ"
    },
    {
        "bm": "KRAFTSTOFFTANK/ABGASANLAGE",
        "kg": "CKK"
    },
    {
        "bm": "SCHEINWERFER/BELEUCHTUNG",
        "kg": "CLL"
    },
    {
        "bm": "MOTOR",
        "kg": "CMM"
    },
    {
        "bm": "NEBENANTRIEB/NEBENABTRIEB",
        "kg": "CNN"
    },
    {
        "bm": "PRITSCHE/SCHMUTZFAENGER",
        "kg": "CPP"
    },
    {
        "bm": "QUERTRAEGER/ANHAENGERKUPPLUNG",
        "kg": "CQQ"
    },
    {
        "bm": "RAEDER/BEREIFUNG",
        "kg": "CRR"
    },
    {
        "bm": "FAHRERHAUS-AUSSTATTUNG",
        "kg": "CSF"
    },
    {
        "bm": "SITZ",
        "kg": "CSS"
    },
    {
        "bm": "TUEREN",
        "kg": "CTT"
    },
    {
        "bm": "SONSTIGES",
        "kg": "CXX"
    },
    {
        "bm": "ZUBEHOER/WERKZEUG",
        "kg": "CYY"
    },
    {
        "bm": "SAMMELCODE",
        "kg": "CZZ"
    }
]